[gd_scene load_steps=6 format=3 uid="uid://cr64hk1rfvw5f"]

[ext_resource type="Script" path="res://game/src/player/corner_detectors.gd" id="1_d5dpm"]

[sub_resource type="SegmentShape2D" id="SegmentShape2D_db4ia"]
resource_local_to_scene = true
a = Vector2(-3, 0)
b = Vector2(3, 0)

[sub_resource type="SegmentShape2D" id="SegmentShape2D_358p6"]
resource_local_to_scene = true
a = Vector2(-3, 0)
b = Vector2(3, 0)

[sub_resource type="SegmentShape2D" id="SegmentShape2D_wjb5k"]
resource_local_to_scene = true
a = Vector2(0, 3)
b = Vector2(0, -3)

[sub_resource type="SegmentShape2D" id="SegmentShape2D_k8jvf"]
resource_local_to_scene = true
a = Vector2(0, 3)
b = Vector2(0, -3)

[node name="CornerDetectors" type="Node2D"]
script = ExtResource("1_d5dpm")

[node name="CornerDetectorTL" type="ShapeCast2D" parent="."]
position = Vector2(-1, -14)
shape = SubResource("SegmentShape2D_db4ia")
target_position = Vector2(0, -8)
collision_mask = 2048

[node name="CornerDetectorTR" type="ShapeCast2D" parent="."]
position = Vector2(1, -14)
shape = SubResource("SegmentShape2D_358p6")
target_position = Vector2(0, -8)
collision_mask = 1024

[node name="CornerDetectorBL" type="ShapeCast2D" parent="."]
position = Vector2(-2, -3)
shape = SubResource("SegmentShape2D_wjb5k")
target_position = Vector2(-6, 0)
collision_mask = 512

[node name="CornerDetectorBR" type="ShapeCast2D" parent="."]
position = Vector2(2, -3)
shape = SubResource("SegmentShape2D_k8jvf")
target_position = Vector2(6, 0)
collision_mask = 256
