[gd_resource type="TileSet" load_steps=12 format=3 uid="uid://cv5wnxoe2v5vi"]

[ext_resource type="Texture2D" uid="uid://dtqlwyagx0j47" path="res://game/assets/levels/bricks_8x8.png" id="1_03aso"]

[sub_resource type="TileMapPattern" id="TileMapPattern_631xc"]
tile_data = PackedInt32Array(65536, 851969, 0, 1, 786433, 0, 65537, 327681, 1)

[sub_resource type="TileMapPattern" id="TileMapPattern_bl0sf"]
tile_data = PackedInt32Array(0, 786433, 1, 65536, 393217, 1, 65537, 851969, 1)

[sub_resource type="TileMapPattern" id="TileMapPattern_lyja0"]
tile_data = PackedInt32Array(0, 851969, 2, 1, 327681, 2, 65537, 786433, 2)

[sub_resource type="TileMapPattern" id="TileMapPattern_c2uia"]
tile_data = PackedInt32Array(0, 393217, 2, 65536, 786433, 3, 1, 851969, 3)

[sub_resource type="TileMapPattern" id="TileMapPattern_yev5t"]
tile_data = PackedInt32Array(0, 524289, 0, 65536, 786433, 0, 1, 851969, 1)

[sub_resource type="TileMapPattern" id="TileMapPattern_fbvwc"]
tile_data = PackedInt32Array(0, 851969, 0, 1, 720897, 0, 65537, 786433, 1)

[sub_resource type="TileMapPattern" id="TileMapPattern_rroej"]
tile_data = PackedInt32Array(0, 786433, 2, 65536, 524289, 3, 65537, 851969, 2)

[sub_resource type="TileMapPattern" id="TileMapPattern_1wmil"]
tile_data = PackedInt32Array(65536, 851969, 3, 1, 786433, 3, 65537, 720897, 3)

[sub_resource type="TileSetAtlasSource" id="TileSetAtlasSource_a2thx"]
resource_name = "Paint"
texture = ExtResource("1_03aso")
texture_region_size = Vector2i(8, 8)
0:0/0 = 0
0:0/0/terrain_set = 0
0:0/0/terrain = 0
0:0/0/physics_layer_0/linear_velocity = Vector2(0, 0)
0:0/0/physics_layer_0/angular_velocity = 0.0
0:0/0/physics_layer_0/polygon_0/points = PackedVector2Array(-4, -4, 4, -4, 4, 4, -4, 4)
0:0/0/physics_layer_1/linear_velocity = Vector2(0, 0)
0:0/0/physics_layer_1/angular_velocity = 0.0
0:0/0/physics_layer_1/polygon_0/points = PackedVector2Array(-4, -4, -2, -4, -2, -2, -4, -2)
0:0/0/physics_layer_2/linear_velocity = Vector2(0, 0)
0:0/0/physics_layer_2/angular_velocity = 0.0
0:0/0/physics_layer_2/polygon_0/points = PackedVector2Array(2, -4, 4, -4, 4, -2, 2, -2)
0:0/0/physics_layer_3/linear_velocity = Vector2(0, 0)
0:0/0/physics_layer_3/angular_velocity = 0.0
0:0/0/physics_layer_4/linear_velocity = Vector2(0, 0)
0:0/0/physics_layer_4/angular_velocity = 0.0
0:0/0/terrains_peering_bit/bottom_side = 0
1:0/0 = 0
1:0/0/terrain_set = 0
1:0/0/terrain = 0
1:0/0/physics_layer_0/linear_velocity = Vector2(0, 0)
1:0/0/physics_layer_0/angular_velocity = 0.0
1:0/0/physics_layer_0/polygon_0/points = PackedVector2Array(-4, -4, 4, -4, 4, 4, -4, 4)
1:0/0/physics_layer_1/linear_velocity = Vector2(0, 0)
1:0/0/physics_layer_1/angular_velocity = 0.0
1:0/0/physics_layer_1/polygon_0/points = PackedVector2Array(-4, -4, -2, -4, -2, -2, -4, -2)
1:0/0/physics_layer_2/linear_velocity = Vector2(0, 0)
1:0/0/physics_layer_2/angular_velocity = 0.0
1:0/0/physics_layer_3/linear_velocity = Vector2(0, 0)
1:0/0/physics_layer_3/angular_velocity = 0.0
1:0/0/physics_layer_4/linear_velocity = Vector2(0, 0)
1:0/0/physics_layer_4/angular_velocity = 0.0
1:0/0/terrains_peering_bit/right_side = 0
1:0/0/terrains_peering_bit/bottom_side = 0
2:0/0 = 0
2:0/0/terrain_set = 0
2:0/0/terrain = 0
2:0/0/physics_layer_0/linear_velocity = Vector2(0, 0)
2:0/0/physics_layer_0/angular_velocity = 0.0
2:0/0/physics_layer_0/polygon_0/points = PackedVector2Array(-4, -4, 4, -4, 4, 4, -4, 4)
2:0/0/physics_layer_1/linear_velocity = Vector2(0, 0)
2:0/0/physics_layer_1/angular_velocity = 0.0
2:0/0/physics_layer_2/linear_velocity = Vector2(0, 0)
2:0/0/physics_layer_2/angular_velocity = 0.0
2:0/0/physics_layer_3/linear_velocity = Vector2(0, 0)
2:0/0/physics_layer_3/angular_velocity = 0.0
2:0/0/physics_layer_4/linear_velocity = Vector2(0, 0)
2:0/0/physics_layer_4/angular_velocity = 0.0
2:0/0/terrains_peering_bit/right_side = 0
2:0/0/terrains_peering_bit/bottom_side = 0
2:0/0/terrains_peering_bit/left_side = 0
3:0/0 = 0
3:0/0/terrain_set = 0
3:0/0/terrain = 0
3:0/0/physics_layer_0/linear_velocity = Vector2(0, 0)
3:0/0/physics_layer_0/angular_velocity = 0.0
3:0/0/physics_layer_0/polygon_0/points = PackedVector2Array(-4, -4, 4, -4, 4, 4, -4, 4)
3:0/0/physics_layer_1/linear_velocity = Vector2(0, 0)
3:0/0/physics_layer_1/angular_velocity = 0.0
3:0/0/physics_layer_2/linear_velocity = Vector2(0, 0)
3:0/0/physics_layer_2/angular_velocity = 0.0
3:0/0/physics_layer_2/polygon_0/points = PackedVector2Array(2, -4, 4, -4, 4, -2, 2, -2)
3:0/0/physics_layer_3/linear_velocity = Vector2(0, 0)
3:0/0/physics_layer_3/angular_velocity = 0.0
3:0/0/physics_layer_4/linear_velocity = Vector2(0, 0)
3:0/0/physics_layer_4/angular_velocity = 0.0
3:0/0/terrains_peering_bit/bottom_side = 0
3:0/0/terrains_peering_bit/left_side = 0
4:0/0 = 0
4:0/0/terrain_set = 0
4:0/0/terrain = 0
4:0/0/physics_layer_0/linear_velocity = Vector2(0, 0)
4:0/0/physics_layer_0/angular_velocity = 0.0
4:0/0/physics_layer_0/polygon_0/points = PackedVector2Array(-4, -4, 4, -4, 4, 4, -4, 4)
4:0/0/physics_layer_1/linear_velocity = Vector2(0, 0)
4:0/0/physics_layer_1/angular_velocity = 0.0
4:0/0/physics_layer_2/linear_velocity = Vector2(0, 0)
4:0/0/physics_layer_2/angular_velocity = 0.0
4:0/0/physics_layer_3/linear_velocity = Vector2(0, 0)
4:0/0/physics_layer_3/angular_velocity = 0.0
4:0/0/physics_layer_4/linear_velocity = Vector2(0, 0)
4:0/0/physics_layer_4/angular_velocity = 0.0
4:0/0/terrains_peering_bit/right_side = 0
4:0/0/terrains_peering_bit/bottom_side = 0
4:0/0/terrains_peering_bit/left_side = 0
4:0/0/terrains_peering_bit/top_left_corner = 0
4:0/0/terrains_peering_bit/top_side = 0
5:0/0 = 0
5:0/0/terrain_set = 0
5:0/0/terrain = 0
5:0/0/physics_layer_0/linear_velocity = Vector2(0, 0)
5:0/0/physics_layer_0/angular_velocity = 0.0
5:0/0/physics_layer_0/polygon_0/points = PackedVector2Array(-4, -4, 4, -4, 4, 4, -4, 4)
5:0/0/physics_layer_1/linear_velocity = Vector2(0, 0)
5:0/0/physics_layer_1/angular_velocity = 0.0
5:0/0/physics_layer_2/linear_velocity = Vector2(0, 0)
5:0/0/physics_layer_2/angular_velocity = 0.0
5:0/0/physics_layer_3/linear_velocity = Vector2(0, 0)
5:0/0/physics_layer_3/angular_velocity = 0.0
5:0/0/physics_layer_4/linear_velocity = Vector2(0, 0)
5:0/0/physics_layer_4/angular_velocity = 0.0
5:0/0/terrains_peering_bit/right_side = 0
5:0/0/terrains_peering_bit/bottom_right_corner = 0
5:0/0/terrains_peering_bit/bottom_side = 0
5:0/0/terrains_peering_bit/left_side = 0
0:1/0 = 0
0:1/0/terrain_set = 0
0:1/0/terrain = 0
0:1/0/physics_layer_0/linear_velocity = Vector2(0, 0)
0:1/0/physics_layer_0/angular_velocity = 0.0
0:1/0/physics_layer_0/polygon_0/points = PackedVector2Array(-4, -4, 4, -4, 4, 4, -4, 4)
0:1/0/physics_layer_1/linear_velocity = Vector2(0, 0)
0:1/0/physics_layer_1/angular_velocity = 0.0
0:1/0/physics_layer_2/linear_velocity = Vector2(0, 0)
0:1/0/physics_layer_2/angular_velocity = 0.0
0:1/0/physics_layer_3/linear_velocity = Vector2(0, 0)
0:1/0/physics_layer_3/angular_velocity = 0.0
0:1/0/physics_layer_4/linear_velocity = Vector2(0, 0)
0:1/0/physics_layer_4/angular_velocity = 0.0
0:1/0/terrains_peering_bit/bottom_side = 0
0:1/0/terrains_peering_bit/top_side = 0
1:1/0 = 0
1:1/0/terrain_set = 0
1:1/0/terrain = 0
1:1/0/physics_layer_0/linear_velocity = Vector2(0, 0)
1:1/0/physics_layer_0/angular_velocity = 0.0
1:1/0/physics_layer_0/polygon_0/points = PackedVector2Array(-4, -4, 4, -4, 4, 4, -4, 4)
1:1/0/physics_layer_1/linear_velocity = Vector2(0, 0)
1:1/0/physics_layer_1/angular_velocity = 0.0
1:1/0/physics_layer_2/linear_velocity = Vector2(0, 0)
1:1/0/physics_layer_2/angular_velocity = 0.0
1:1/0/physics_layer_3/linear_velocity = Vector2(0, 0)
1:1/0/physics_layer_3/angular_velocity = 0.0
1:1/0/physics_layer_4/linear_velocity = Vector2(0, 0)
1:1/0/physics_layer_4/angular_velocity = 0.0
1:1/0/terrains_peering_bit/right_side = 0
1:1/0/terrains_peering_bit/bottom_side = 0
1:1/0/terrains_peering_bit/top_side = 0
2:1/0 = 0
2:1/0/terrain_set = 0
2:1/0/terrain = 0
2:1/0/physics_layer_0/linear_velocity = Vector2(0, 0)
2:1/0/physics_layer_0/angular_velocity = 0.0
2:1/0/physics_layer_0/polygon_0/points = PackedVector2Array(-4, -4, 4, -4, 4, 4, -4, 4)
2:1/0/physics_layer_1/linear_velocity = Vector2(0, 0)
2:1/0/physics_layer_1/angular_velocity = 0.0
2:1/0/physics_layer_2/linear_velocity = Vector2(0, 0)
2:1/0/physics_layer_2/angular_velocity = 0.0
2:1/0/physics_layer_3/linear_velocity = Vector2(0, 0)
2:1/0/physics_layer_3/angular_velocity = 0.0
2:1/0/physics_layer_4/linear_velocity = Vector2(0, 0)
2:1/0/physics_layer_4/angular_velocity = 0.0
2:1/0/terrains_peering_bit/right_side = 0
2:1/0/terrains_peering_bit/bottom_side = 0
2:1/0/terrains_peering_bit/left_side = 0
2:1/0/terrains_peering_bit/top_side = 0
3:1/0 = 0
3:1/0/terrain_set = 0
3:1/0/terrain = 0
3:1/0/physics_layer_0/linear_velocity = Vector2(0, 0)
3:1/0/physics_layer_0/angular_velocity = 0.0
3:1/0/physics_layer_0/polygon_0/points = PackedVector2Array(-4, -4, 4, -4, 4, 4, -4, 4)
3:1/0/physics_layer_1/linear_velocity = Vector2(0, 0)
3:1/0/physics_layer_1/angular_velocity = 0.0
3:1/0/physics_layer_2/linear_velocity = Vector2(0, 0)
3:1/0/physics_layer_2/angular_velocity = 0.0
3:1/0/physics_layer_3/linear_velocity = Vector2(0, 0)
3:1/0/physics_layer_3/angular_velocity = 0.0
3:1/0/physics_layer_4/linear_velocity = Vector2(0, 0)
3:1/0/physics_layer_4/angular_velocity = 0.0
3:1/0/terrains_peering_bit/bottom_side = 0
3:1/0/terrains_peering_bit/left_side = 0
3:1/0/terrains_peering_bit/top_side = 0
4:1/0 = 0
4:1/0/terrain_set = 0
4:1/0/terrain = 0
4:1/0/physics_layer_0/linear_velocity = Vector2(0, 0)
4:1/0/physics_layer_0/angular_velocity = 0.0
4:1/0/physics_layer_0/polygon_0/points = PackedVector2Array(-4, -4, 4, -4, 4, 4, -4, 4)
4:1/0/physics_layer_1/linear_velocity = Vector2(0, 0)
4:1/0/physics_layer_1/angular_velocity = 0.0
4:1/0/physics_layer_2/linear_velocity = Vector2(0, 0)
4:1/0/physics_layer_2/angular_velocity = 0.0
4:1/0/physics_layer_3/linear_velocity = Vector2(0, 0)
4:1/0/physics_layer_3/angular_velocity = 0.0
4:1/0/physics_layer_4/linear_velocity = Vector2(0, 0)
4:1/0/physics_layer_4/angular_velocity = 0.0
4:1/0/terrains_peering_bit/right_side = 0
4:1/0/terrains_peering_bit/bottom_right_corner = 0
4:1/0/terrains_peering_bit/bottom_side = 0
4:1/0/terrains_peering_bit/top_side = 0
5:1/0 = 0
5:1/0/terrain_set = 0
5:1/0/terrain = 0
5:1/0/physics_layer_0/linear_velocity = Vector2(0, 0)
5:1/0/physics_layer_0/angular_velocity = 0.0
5:1/0/physics_layer_0/polygon_0/points = PackedVector2Array(-4, -4, 4, -4, 4, 4, -4, 4)
5:1/0/physics_layer_1/linear_velocity = Vector2(0, 0)
5:1/0/physics_layer_1/angular_velocity = 0.0
5:1/0/physics_layer_2/linear_velocity = Vector2(0, 0)
5:1/0/physics_layer_2/angular_velocity = 0.0
5:1/0/physics_layer_3/linear_velocity = Vector2(0, 0)
5:1/0/physics_layer_3/angular_velocity = 0.0
5:1/0/physics_layer_4/linear_velocity = Vector2(0, 0)
5:1/0/physics_layer_4/angular_velocity = 0.0
5:1/0/terrains_peering_bit/right_side = 0
5:1/0/terrains_peering_bit/bottom_right_corner = 0
5:1/0/terrains_peering_bit/bottom_side = 0
5:1/0/terrains_peering_bit/bottom_left_corner = 0
5:1/0/terrains_peering_bit/left_side = 0
5:1/0/terrains_peering_bit/top_side = 0
5:1/0/terrains_peering_bit/top_right_corner = 0
6:0/0 = 0
6:0/0/terrain_set = 0
6:0/0/terrain = 0
6:0/0/physics_layer_0/linear_velocity = Vector2(0, 0)
6:0/0/physics_layer_0/angular_velocity = 0.0
6:0/0/physics_layer_0/polygon_0/points = PackedVector2Array(-4, -4, 4, -4, 4, 4, -4, 4)
6:0/0/physics_layer_1/linear_velocity = Vector2(0, 0)
6:0/0/physics_layer_1/angular_velocity = 0.0
6:0/0/physics_layer_2/linear_velocity = Vector2(0, 0)
6:0/0/physics_layer_2/angular_velocity = 0.0
6:0/0/physics_layer_3/linear_velocity = Vector2(0, 0)
6:0/0/physics_layer_3/angular_velocity = 0.0
6:0/0/physics_layer_4/linear_velocity = Vector2(0, 0)
6:0/0/physics_layer_4/angular_velocity = 0.0
6:0/0/terrains_peering_bit/right_side = 0
6:0/0/terrains_peering_bit/bottom_side = 0
6:0/0/terrains_peering_bit/bottom_left_corner = 0
6:0/0/terrains_peering_bit/left_side = 0
7:0/0 = 0
7:0/0/terrain_set = 0
7:0/0/terrain = 0
7:0/0/physics_layer_0/linear_velocity = Vector2(0, 0)
7:0/0/physics_layer_0/angular_velocity = 0.0
7:0/0/physics_layer_0/polygon_0/points = PackedVector2Array(-4, -4, 4, -4, 4, 4, -4, 4)
7:0/0/physics_layer_1/linear_velocity = Vector2(0, 0)
7:0/0/physics_layer_1/angular_velocity = 0.0
7:0/0/physics_layer_2/linear_velocity = Vector2(0, 0)
7:0/0/physics_layer_2/angular_velocity = 0.0
7:0/0/physics_layer_3/linear_velocity = Vector2(0, 0)
7:0/0/physics_layer_3/angular_velocity = 0.0
7:0/0/physics_layer_4/linear_velocity = Vector2(0, 0)
7:0/0/physics_layer_4/angular_velocity = 0.0
7:0/0/terrains_peering_bit/right_side = 0
7:0/0/terrains_peering_bit/bottom_side = 0
7:0/0/terrains_peering_bit/left_side = 0
7:0/0/terrains_peering_bit/top_side = 0
7:0/0/terrains_peering_bit/top_right_corner = 0
8:0/0 = 0
8:0/0/terrain_set = 0
8:0/0/terrain = 0
8:0/0/physics_layer_0/linear_velocity = Vector2(0, 0)
8:0/0/physics_layer_0/angular_velocity = 0.0
8:0/0/physics_layer_0/polygon_0/points = PackedVector2Array(-4, -4, 4, -4, 4, 4, -4, 4)
8:0/0/physics_layer_1/linear_velocity = Vector2(0, 0)
8:0/0/physics_layer_1/angular_velocity = 0.0
8:0/0/physics_layer_1/polygon_0/points = PackedVector2Array(-4, -4, -2, -4, -2, -2, -4, -2)
8:0/0/physics_layer_2/linear_velocity = Vector2(0, 0)
8:0/0/physics_layer_2/angular_velocity = 0.0
8:0/0/physics_layer_3/linear_velocity = Vector2(0, 0)
8:0/0/physics_layer_3/angular_velocity = 0.0
8:0/0/physics_layer_4/linear_velocity = Vector2(0, 0)
8:0/0/physics_layer_4/angular_velocity = 0.0
8:0/0/terrains_peering_bit/right_side = 0
8:0/0/terrains_peering_bit/bottom_right_corner = 0
8:0/0/terrains_peering_bit/bottom_side = 0
9:0/0 = 0
9:0/0/terrain_set = 0
9:0/0/terrain = 0
9:0/0/physics_layer_0/linear_velocity = Vector2(0, 0)
9:0/0/physics_layer_0/angular_velocity = 0.0
9:0/0/physics_layer_0/polygon_0/points = PackedVector2Array(-4, -4, 4, -4, 4, 4, -4, 4)
9:0/0/physics_layer_1/linear_velocity = Vector2(0, 0)
9:0/0/physics_layer_1/angular_velocity = 0.0
9:0/0/physics_layer_2/linear_velocity = Vector2(0, 0)
9:0/0/physics_layer_2/angular_velocity = 0.0
9:0/0/physics_layer_3/linear_velocity = Vector2(0, 0)
9:0/0/physics_layer_3/angular_velocity = 0.0
9:0/0/physics_layer_4/linear_velocity = Vector2(0, 0)
9:0/0/physics_layer_4/angular_velocity = 0.0
9:0/0/terrains_peering_bit/right_side = 0
9:0/0/terrains_peering_bit/bottom_right_corner = 0
9:0/0/terrains_peering_bit/bottom_side = 0
9:0/0/terrains_peering_bit/bottom_left_corner = 0
9:0/0/terrains_peering_bit/left_side = 0
9:0/0/terrains_peering_bit/top_side = 0
10:0/0 = 0
10:0/0/terrain_set = 0
10:0/0/terrain = 0
10:0/0/physics_layer_0/linear_velocity = Vector2(0, 0)
10:0/0/physics_layer_0/angular_velocity = 0.0
10:0/0/physics_layer_0/polygon_0/points = PackedVector2Array(-4, -4, 4, -4, 4, 4, -4, 4)
10:0/0/physics_layer_1/linear_velocity = Vector2(0, 0)
10:0/0/physics_layer_1/angular_velocity = 0.0
10:0/0/physics_layer_2/linear_velocity = Vector2(0, 0)
10:0/0/physics_layer_2/angular_velocity = 0.0
10:0/0/physics_layer_3/linear_velocity = Vector2(0, 0)
10:0/0/physics_layer_3/angular_velocity = 0.0
10:0/0/physics_layer_4/linear_velocity = Vector2(0, 0)
10:0/0/physics_layer_4/angular_velocity = 0.0
10:0/0/terrains_peering_bit/right_side = 0
10:0/0/terrains_peering_bit/bottom_right_corner = 0
10:0/0/terrains_peering_bit/bottom_side = 0
10:0/0/terrains_peering_bit/bottom_left_corner = 0
10:0/0/terrains_peering_bit/left_side = 0
11:0/0 = 0
11:0/0/terrain_set = 0
11:0/0/terrain = 0
11:0/0/physics_layer_0/linear_velocity = Vector2(0, 0)
11:0/0/physics_layer_0/angular_velocity = 0.0
11:0/0/physics_layer_0/polygon_0/points = PackedVector2Array(-4, -4, 4, -4, 4, 4, -4, 4)
11:0/0/physics_layer_1/linear_velocity = Vector2(0, 0)
11:0/0/physics_layer_1/angular_velocity = 0.0
11:0/0/physics_layer_2/linear_velocity = Vector2(0, 0)
11:0/0/physics_layer_2/angular_velocity = 0.0
11:0/0/physics_layer_2/polygon_0/points = PackedVector2Array(2, -4, 4, -4, 4, -2, 2, -2)
11:0/0/physics_layer_3/linear_velocity = Vector2(0, 0)
11:0/0/physics_layer_3/angular_velocity = 0.0
11:0/0/physics_layer_4/linear_velocity = Vector2(0, 0)
11:0/0/physics_layer_4/angular_velocity = 0.0
11:0/0/terrains_peering_bit/bottom_side = 0
11:0/0/terrains_peering_bit/bottom_left_corner = 0
11:0/0/terrains_peering_bit/left_side = 0
6:1/0 = 0
6:1/0/terrain_set = 0
6:1/0/terrain = 0
6:1/0/physics_layer_0/linear_velocity = Vector2(0, 0)
6:1/0/physics_layer_0/angular_velocity = 0.0
6:1/0/physics_layer_0/polygon_0/points = PackedVector2Array(-4, -4, 4, -4, 4, 4, -4, 4)
6:1/0/physics_layer_1/linear_velocity = Vector2(0, 0)
6:1/0/physics_layer_1/angular_velocity = 0.0
6:1/0/physics_layer_2/linear_velocity = Vector2(0, 0)
6:1/0/physics_layer_2/angular_velocity = 0.0
6:1/0/physics_layer_3/linear_velocity = Vector2(0, 0)
6:1/0/physics_layer_3/angular_velocity = 0.0
6:1/0/physics_layer_4/linear_velocity = Vector2(0, 0)
6:1/0/physics_layer_4/angular_velocity = 0.0
6:1/0/terrains_peering_bit/right_side = 0
6:1/0/terrains_peering_bit/bottom_right_corner = 0
6:1/0/terrains_peering_bit/bottom_side = 0
6:1/0/terrains_peering_bit/bottom_left_corner = 0
6:1/0/terrains_peering_bit/left_side = 0
6:1/0/terrains_peering_bit/top_left_corner = 0
6:1/0/terrains_peering_bit/top_side = 0
7:1/0 = 0
7:1/0/terrain_set = 0
7:1/0/terrain = 0
7:1/0/physics_layer_0/linear_velocity = Vector2(0, 0)
7:1/0/physics_layer_0/angular_velocity = 0.0
7:1/0/physics_layer_0/polygon_0/points = PackedVector2Array(-4, -4, 4, -4, 4, 4, -4, 4)
7:1/0/physics_layer_1/linear_velocity = Vector2(0, 0)
7:1/0/physics_layer_1/angular_velocity = 0.0
7:1/0/physics_layer_2/linear_velocity = Vector2(0, 0)
7:1/0/physics_layer_2/angular_velocity = 0.0
7:1/0/physics_layer_3/linear_velocity = Vector2(0, 0)
7:1/0/physics_layer_3/angular_velocity = 0.0
7:1/0/physics_layer_4/linear_velocity = Vector2(0, 0)
7:1/0/physics_layer_4/angular_velocity = 0.0
7:1/0/terrains_peering_bit/bottom_side = 0
7:1/0/terrains_peering_bit/bottom_left_corner = 0
7:1/0/terrains_peering_bit/top_side = 0
8:1/0 = 0
8:1/0/terrain_set = 0
8:1/0/terrain = 0
8:1/0/physics_layer_0/linear_velocity = Vector2(0, 0)
8:1/0/physics_layer_0/angular_velocity = 0.0
8:1/0/physics_layer_0/polygon_0/points = PackedVector2Array(-4, -4, 4, -4, 4, 4, -4, 4)
8:1/0/physics_layer_1/linear_velocity = Vector2(0, 0)
8:1/0/physics_layer_1/angular_velocity = 0.0
8:1/0/physics_layer_2/linear_velocity = Vector2(0, 0)
8:1/0/physics_layer_2/angular_velocity = 0.0
8:1/0/physics_layer_3/linear_velocity = Vector2(0, 0)
8:1/0/physics_layer_3/angular_velocity = 0.0
8:1/0/physics_layer_4/linear_velocity = Vector2(0, 0)
8:1/0/physics_layer_4/angular_velocity = 0.0
8:1/0/terrains_peering_bit/right_side = 0
8:1/0/terrains_peering_bit/bottom_right_corner = 0
8:1/0/terrains_peering_bit/bottom_side = 0
8:1/0/terrains_peering_bit/top_side = 0
8:1/0/terrains_peering_bit/top_right_corner = 0
9:1/0 = 0
9:1/0/terrain_set = 0
9:1/0/terrain = 0
9:1/0/physics_layer_0/linear_velocity = Vector2(0, 0)
9:1/0/physics_layer_0/angular_velocity = 0.0
9:1/0/physics_layer_0/polygon_0/points = PackedVector2Array(-4, -4, 4, -4, 4, 4, -4, 4)
9:1/0/physics_layer_1/linear_velocity = Vector2(0, 0)
9:1/0/physics_layer_1/angular_velocity = 0.0
9:1/0/physics_layer_2/linear_velocity = Vector2(0, 0)
9:1/0/physics_layer_2/angular_velocity = 0.0
9:1/0/physics_layer_3/linear_velocity = Vector2(0, 0)
9:1/0/physics_layer_3/angular_velocity = 0.0
9:1/0/physics_layer_4/linear_velocity = Vector2(0, 0)
9:1/0/physics_layer_4/angular_velocity = 0.0
9:1/0/terrains_peering_bit/right_side = 0
9:1/0/terrains_peering_bit/bottom_side = 0
9:1/0/terrains_peering_bit/bottom_left_corner = 0
9:1/0/terrains_peering_bit/left_side = 0
9:1/0/terrains_peering_bit/top_side = 0
9:1/0/terrains_peering_bit/top_right_corner = 0
11:1/0 = 0
11:1/0/terrain_set = 0
11:1/0/terrain = 0
11:1/0/physics_layer_0/linear_velocity = Vector2(0, 0)
11:1/0/physics_layer_0/angular_velocity = 0.0
11:1/0/physics_layer_0/polygon_0/points = PackedVector2Array(-4, -4, 4, -4, 4, 4, -4, 4)
11:1/0/physics_layer_1/linear_velocity = Vector2(0, 0)
11:1/0/physics_layer_1/angular_velocity = 0.0
11:1/0/physics_layer_2/linear_velocity = Vector2(0, 0)
11:1/0/physics_layer_2/angular_velocity = 0.0
11:1/0/physics_layer_3/linear_velocity = Vector2(0, 0)
11:1/0/physics_layer_3/angular_velocity = 0.0
11:1/0/physics_layer_4/linear_velocity = Vector2(0, 0)
11:1/0/physics_layer_4/angular_velocity = 0.0
11:1/0/terrains_peering_bit/right_side = 0
11:1/0/terrains_peering_bit/bottom_side = 0
11:1/0/terrains_peering_bit/bottom_left_corner = 0
11:1/0/terrains_peering_bit/left_side = 0
11:1/0/terrains_peering_bit/top_left_corner = 0
11:1/0/terrains_peering_bit/top_side = 0
0:2/0 = 0
0:2/0/terrain_set = 0
0:2/0/terrain = 0
0:2/0/physics_layer_0/linear_velocity = Vector2(0, 0)
0:2/0/physics_layer_0/angular_velocity = 0.0
0:2/0/physics_layer_0/polygon_0/points = PackedVector2Array(-4, -4, 4, -4, 4, 4, -4, 4)
0:2/0/physics_layer_1/linear_velocity = Vector2(0, 0)
0:2/0/physics_layer_1/angular_velocity = 0.0
0:2/0/physics_layer_2/linear_velocity = Vector2(0, 0)
0:2/0/physics_layer_2/angular_velocity = 0.0
0:2/0/physics_layer_3/linear_velocity = Vector2(0, 0)
0:2/0/physics_layer_3/angular_velocity = 0.0
0:2/0/physics_layer_3/polygon_0/points = PackedVector2Array(-4, 2, -2, 2, -2, 4, -4, 4)
0:2/0/physics_layer_4/linear_velocity = Vector2(0, 0)
0:2/0/physics_layer_4/angular_velocity = 0.0
0:2/0/physics_layer_4/polygon_0/points = PackedVector2Array(2, 2, 4, 2, 4, 4, 2, 4)
0:2/0/terrains_peering_bit/top_side = 0
1:2/0 = 0
1:2/0/terrain_set = 0
1:2/0/terrain = 0
1:2/0/physics_layer_0/linear_velocity = Vector2(0, 0)
1:2/0/physics_layer_0/angular_velocity = 0.0
1:2/0/physics_layer_0/polygon_0/points = PackedVector2Array(-4, -4, 4, -4, 4, 4, -4, 4)
1:2/0/physics_layer_1/linear_velocity = Vector2(0, 0)
1:2/0/physics_layer_1/angular_velocity = 0.0
1:2/0/physics_layer_2/linear_velocity = Vector2(0, 0)
1:2/0/physics_layer_2/angular_velocity = 0.0
1:2/0/physics_layer_3/linear_velocity = Vector2(0, 0)
1:2/0/physics_layer_3/angular_velocity = 0.0
1:2/0/physics_layer_3/polygon_0/points = PackedVector2Array(-4, 2, -2, 2, -2, 4, -4, 4)
1:2/0/physics_layer_4/linear_velocity = Vector2(0, 0)
1:2/0/physics_layer_4/angular_velocity = 0.0
1:2/0/terrains_peering_bit/right_side = 0
1:2/0/terrains_peering_bit/top_side = 0
2:2/0 = 0
2:2/0/terrain_set = 0
2:2/0/terrain = 0
2:2/0/physics_layer_0/linear_velocity = Vector2(0, 0)
2:2/0/physics_layer_0/angular_velocity = 0.0
2:2/0/physics_layer_0/polygon_0/points = PackedVector2Array(-4, -4, 4, -4, 4, 4, -4, 4)
2:2/0/physics_layer_1/linear_velocity = Vector2(0, 0)
2:2/0/physics_layer_1/angular_velocity = 0.0
2:2/0/physics_layer_2/linear_velocity = Vector2(0, 0)
2:2/0/physics_layer_2/angular_velocity = 0.0
2:2/0/physics_layer_3/linear_velocity = Vector2(0, 0)
2:2/0/physics_layer_3/angular_velocity = 0.0
2:2/0/physics_layer_4/linear_velocity = Vector2(0, 0)
2:2/0/physics_layer_4/angular_velocity = 0.0
2:2/0/terrains_peering_bit/right_side = 0
2:2/0/terrains_peering_bit/left_side = 0
2:2/0/terrains_peering_bit/top_side = 0
3:2/0 = 0
3:2/0/terrain_set = 0
3:2/0/terrain = 0
3:2/0/physics_layer_0/linear_velocity = Vector2(0, 0)
3:2/0/physics_layer_0/angular_velocity = 0.0
3:2/0/physics_layer_0/polygon_0/points = PackedVector2Array(-4, -4, 4, -4, 4, 4, -4, 4)
3:2/0/physics_layer_1/linear_velocity = Vector2(0, 0)
3:2/0/physics_layer_1/angular_velocity = 0.0
3:2/0/physics_layer_2/linear_velocity = Vector2(0, 0)
3:2/0/physics_layer_2/angular_velocity = 0.0
3:2/0/physics_layer_3/linear_velocity = Vector2(0, 0)
3:2/0/physics_layer_3/angular_velocity = 0.0
3:2/0/physics_layer_4/linear_velocity = Vector2(0, 0)
3:2/0/physics_layer_4/angular_velocity = 0.0
3:2/0/physics_layer_4/polygon_0/points = PackedVector2Array(2, 2, 4, 2, 4, 4, 2, 4)
3:2/0/terrains_peering_bit/left_side = 0
3:2/0/terrains_peering_bit/top_side = 0
4:2/0 = 0
4:2/0/terrain_set = 0
4:2/0/terrain = 0
4:2/0/physics_layer_0/linear_velocity = Vector2(0, 0)
4:2/0/physics_layer_0/angular_velocity = 0.0
4:2/0/physics_layer_0/polygon_0/points = PackedVector2Array(-4, -4, 4, -4, 4, 4, -4, 4)
4:2/0/physics_layer_1/linear_velocity = Vector2(0, 0)
4:2/0/physics_layer_1/angular_velocity = 0.0
4:2/0/physics_layer_2/linear_velocity = Vector2(0, 0)
4:2/0/physics_layer_2/angular_velocity = 0.0
4:2/0/physics_layer_3/linear_velocity = Vector2(0, 0)
4:2/0/physics_layer_3/angular_velocity = 0.0
4:2/0/physics_layer_4/linear_velocity = Vector2(0, 0)
4:2/0/physics_layer_4/angular_velocity = 0.0
4:2/0/terrains_peering_bit/right_side = 0
4:2/0/terrains_peering_bit/bottom_side = 0
4:2/0/terrains_peering_bit/top_side = 0
4:2/0/terrains_peering_bit/top_right_corner = 0
5:2/0 = 0
5:2/0/terrain_set = 0
5:2/0/terrain = 0
5:2/0/physics_layer_0/linear_velocity = Vector2(0, 0)
5:2/0/physics_layer_0/angular_velocity = 0.0
5:2/0/physics_layer_0/polygon_0/points = PackedVector2Array(-4, -4, 4, -4, 4, 4, -4, 4)
5:2/0/physics_layer_1/linear_velocity = Vector2(0, 0)
5:2/0/physics_layer_1/angular_velocity = 0.0
5:2/0/physics_layer_2/linear_velocity = Vector2(0, 0)
5:2/0/physics_layer_2/angular_velocity = 0.0
5:2/0/physics_layer_3/linear_velocity = Vector2(0, 0)
5:2/0/physics_layer_3/angular_velocity = 0.0
5:2/0/physics_layer_4/linear_velocity = Vector2(0, 0)
5:2/0/physics_layer_4/angular_velocity = 0.0
5:2/0/terrains_peering_bit/right_side = 0
5:2/0/terrains_peering_bit/bottom_right_corner = 0
5:2/0/terrains_peering_bit/bottom_side = 0
5:2/0/terrains_peering_bit/left_side = 0
5:2/0/terrains_peering_bit/top_left_corner = 0
5:2/0/terrains_peering_bit/top_side = 0
5:2/0/terrains_peering_bit/top_right_corner = 0
6:2/0 = 0
6:2/0/terrain_set = 0
6:2/0/terrain = 0
6:2/0/physics_layer_0/linear_velocity = Vector2(0, 0)
6:2/0/physics_layer_0/angular_velocity = 0.0
6:2/0/physics_layer_0/polygon_0/points = PackedVector2Array(-4, -4, 4, -4, 4, 4, -4, 4)
6:2/0/physics_layer_1/linear_velocity = Vector2(0, 0)
6:2/0/physics_layer_1/angular_velocity = 0.0
6:2/0/physics_layer_2/linear_velocity = Vector2(0, 0)
6:2/0/physics_layer_2/angular_velocity = 0.0
6:2/0/physics_layer_3/linear_velocity = Vector2(0, 0)
6:2/0/physics_layer_3/angular_velocity = 0.0
6:2/0/physics_layer_4/linear_velocity = Vector2(0, 0)
6:2/0/physics_layer_4/angular_velocity = 0.0
6:2/0/terrains_peering_bit/right_side = 0
6:2/0/terrains_peering_bit/bottom_side = 0
6:2/0/terrains_peering_bit/bottom_left_corner = 0
6:2/0/terrains_peering_bit/left_side = 0
6:2/0/terrains_peering_bit/top_left_corner = 0
6:2/0/terrains_peering_bit/top_side = 0
6:2/0/terrains_peering_bit/top_right_corner = 0
7:2/0 = 0
7:2/0/terrain_set = 0
7:2/0/terrain = 0
7:2/0/physics_layer_0/linear_velocity = Vector2(0, 0)
7:2/0/physics_layer_0/angular_velocity = 0.0
7:2/0/physics_layer_0/polygon_0/points = PackedVector2Array(-4, -4, 4, -4, 4, 4, -4, 4)
7:2/0/physics_layer_1/linear_velocity = Vector2(0, 0)
7:2/0/physics_layer_1/angular_velocity = 0.0
7:2/0/physics_layer_2/linear_velocity = Vector2(0, 0)
7:2/0/physics_layer_2/angular_velocity = 0.0
7:2/0/physics_layer_3/linear_velocity = Vector2(0, 0)
7:2/0/physics_layer_3/angular_velocity = 0.0
7:2/0/physics_layer_4/linear_velocity = Vector2(0, 0)
7:2/0/physics_layer_4/angular_velocity = 0.0
7:2/0/terrains_peering_bit/bottom_side = 0
7:2/0/terrains_peering_bit/left_side = 0
7:2/0/terrains_peering_bit/top_left_corner = 0
7:2/0/terrains_peering_bit/top_side = 0
8:2/0 = 0
8:2/0/terrain_set = 0
8:2/0/terrain = 0
8:2/0/physics_layer_0/linear_velocity = Vector2(0, 0)
8:2/0/physics_layer_0/angular_velocity = 0.0
8:2/0/physics_layer_0/polygon_0/points = PackedVector2Array(-4, -4, 4, -4, 4, 4, -4, 4)
8:2/0/physics_layer_1/linear_velocity = Vector2(0, 0)
8:2/0/physics_layer_1/angular_velocity = 0.0
8:2/0/physics_layer_2/linear_velocity = Vector2(0, 0)
8:2/0/physics_layer_2/angular_velocity = 0.0
8:2/0/physics_layer_3/linear_velocity = Vector2(0, 0)
8:2/0/physics_layer_3/angular_velocity = 0.0
8:2/0/physics_layer_4/linear_velocity = Vector2(0, 0)
8:2/0/physics_layer_4/angular_velocity = 0.0
8:2/0/terrains_peering_bit/right_side = 0
8:2/0/terrains_peering_bit/bottom_right_corner = 0
8:2/0/terrains_peering_bit/bottom_side = 0
8:2/0/terrains_peering_bit/left_side = 0
8:2/0/terrains_peering_bit/top_side = 0
8:2/0/terrains_peering_bit/top_right_corner = 0
9:2/0 = 0
9:2/0/terrain_set = 0
9:2/0/terrain = 0
9:2/0/physics_layer_0/linear_velocity = Vector2(0, 0)
9:2/0/physics_layer_0/angular_velocity = 0.0
9:2/0/physics_layer_0/polygon_0/points = PackedVector2Array(-4, -4, 4, -4, 4, 4, -4, 4)
9:2/0/physics_layer_1/linear_velocity = Vector2(0, 0)
9:2/0/physics_layer_1/angular_velocity = 0.0
9:2/0/physics_layer_2/linear_velocity = Vector2(0, 0)
9:2/0/physics_layer_2/angular_velocity = 0.0
9:2/0/physics_layer_3/linear_velocity = Vector2(0, 0)
9:2/0/physics_layer_3/angular_velocity = 0.0
9:2/0/physics_layer_4/linear_velocity = Vector2(0, 0)
9:2/0/physics_layer_4/angular_velocity = 0.0
9:2/0/terrains_peering_bit/right_side = 0
9:2/0/terrains_peering_bit/bottom_right_corner = 0
9:2/0/terrains_peering_bit/bottom_side = 0
9:2/0/terrains_peering_bit/bottom_left_corner = 0
9:2/0/terrains_peering_bit/left_side = 0
9:2/0/terrains_peering_bit/top_left_corner = 0
9:2/0/terrains_peering_bit/top_side = 0
9:2/0/terrains_peering_bit/top_right_corner = 0
10:2/0 = 0
10:2/0/terrain_set = 0
10:2/0/terrain = 0
10:2/0/physics_layer_0/linear_velocity = Vector2(0, 0)
10:2/0/physics_layer_0/angular_velocity = 0.0
10:2/0/physics_layer_0/polygon_0/points = PackedVector2Array(-4, -4, 4, -4, 4, 4, -4, 4)
10:2/0/physics_layer_1/linear_velocity = Vector2(0, 0)
10:2/0/physics_layer_1/angular_velocity = 0.0
10:2/0/physics_layer_2/linear_velocity = Vector2(0, 0)
10:2/0/physics_layer_2/angular_velocity = 0.0
10:2/0/physics_layer_3/linear_velocity = Vector2(0, 0)
10:2/0/physics_layer_3/angular_velocity = 0.0
10:2/0/physics_layer_4/linear_velocity = Vector2(0, 0)
10:2/0/physics_layer_4/angular_velocity = 0.0
10:2/0/terrains_peering_bit/right_side = 0
10:2/0/terrains_peering_bit/bottom_right_corner = 0
10:2/0/terrains_peering_bit/bottom_side = 0
10:2/0/terrains_peering_bit/left_side = 0
10:2/0/terrains_peering_bit/top_left_corner = 0
10:2/0/terrains_peering_bit/top_side = 0
11:2/0 = 0
11:2/0/terrain_set = 0
11:2/0/terrain = 0
11:2/0/physics_layer_0/linear_velocity = Vector2(0, 0)
11:2/0/physics_layer_0/angular_velocity = 0.0
11:2/0/physics_layer_0/polygon_0/points = PackedVector2Array(-4, -4, 4, -4, 4, 4, -4, 4)
11:2/0/physics_layer_1/linear_velocity = Vector2(0, 0)
11:2/0/physics_layer_1/angular_velocity = 0.0
11:2/0/physics_layer_2/linear_velocity = Vector2(0, 0)
11:2/0/physics_layer_2/angular_velocity = 0.0
11:2/0/physics_layer_3/linear_velocity = Vector2(0, 0)
11:2/0/physics_layer_3/angular_velocity = 0.0
11:2/0/physics_layer_4/linear_velocity = Vector2(0, 0)
11:2/0/physics_layer_4/angular_velocity = 0.0
11:2/0/terrains_peering_bit/bottom_side = 0
11:2/0/terrains_peering_bit/bottom_left_corner = 0
11:2/0/terrains_peering_bit/left_side = 0
11:2/0/terrains_peering_bit/top_left_corner = 0
11:2/0/terrains_peering_bit/top_side = 0
0:3/0 = 0
0:3/0/terrain_set = 0
0:3/0/terrain = 0
0:3/0/physics_layer_0/linear_velocity = Vector2(0, 0)
0:3/0/physics_layer_0/angular_velocity = 0.0
0:3/0/physics_layer_0/polygon_0/points = PackedVector2Array(-4, -4, 4, -4, 4, 4, -4, 4)
0:3/0/physics_layer_1/linear_velocity = Vector2(0, 0)
0:3/0/physics_layer_1/angular_velocity = 0.0
0:3/0/physics_layer_1/polygon_0/points = PackedVector2Array(-4, -4, -2, -4, -2, -2, -4, -2)
0:3/0/physics_layer_2/linear_velocity = Vector2(0, 0)
0:3/0/physics_layer_2/angular_velocity = 0.0
0:3/0/physics_layer_2/polygon_0/points = PackedVector2Array(2, -4, 4, -4, 4, -2, 2, -2)
0:3/0/physics_layer_3/linear_velocity = Vector2(0, 0)
0:3/0/physics_layer_3/angular_velocity = 0.0
0:3/0/physics_layer_3/polygon_0/points = PackedVector2Array(-4, 2, -2, 2, -2, 4, -4, 4)
0:3/0/physics_layer_4/linear_velocity = Vector2(0, 0)
0:3/0/physics_layer_4/angular_velocity = 0.0
0:3/0/physics_layer_4/polygon_0/points = PackedVector2Array(2, 2, 4, 2, 4, 4, 2, 4)
1:3/0 = 0
1:3/0/terrain_set = 0
1:3/0/terrain = 0
1:3/0/physics_layer_0/linear_velocity = Vector2(0, 0)
1:3/0/physics_layer_0/angular_velocity = 0.0
1:3/0/physics_layer_0/polygon_0/points = PackedVector2Array(-4, -4, 4, -4, 4, 4, -4, 4)
1:3/0/physics_layer_1/linear_velocity = Vector2(0, 0)
1:3/0/physics_layer_1/angular_velocity = 0.0
1:3/0/physics_layer_1/polygon_0/points = PackedVector2Array(-4, -4, -2, -4, -2, -2, -4, -2)
1:3/0/physics_layer_2/linear_velocity = Vector2(0, 0)
1:3/0/physics_layer_2/angular_velocity = 0.0
1:3/0/physics_layer_3/linear_velocity = Vector2(0, 0)
1:3/0/physics_layer_3/angular_velocity = 0.0
1:3/0/physics_layer_3/polygon_0/points = PackedVector2Array(-4, 2, -2, 2, -2, 4, -4, 4)
1:3/0/physics_layer_4/linear_velocity = Vector2(0, 0)
1:3/0/physics_layer_4/angular_velocity = 0.0
1:3/0/terrains_peering_bit/right_side = 0
2:3/0 = 0
2:3/0/terrain_set = 0
2:3/0/terrain = 0
2:3/0/physics_layer_0/linear_velocity = Vector2(0, 0)
2:3/0/physics_layer_0/angular_velocity = 0.0
2:3/0/physics_layer_0/polygon_0/points = PackedVector2Array(-4, -4, 4, -4, 4, 4, -4, 4)
2:3/0/physics_layer_1/linear_velocity = Vector2(0, 0)
2:3/0/physics_layer_1/angular_velocity = 0.0
2:3/0/physics_layer_2/linear_velocity = Vector2(0, 0)
2:3/0/physics_layer_2/angular_velocity = 0.0
2:3/0/physics_layer_3/linear_velocity = Vector2(0, 0)
2:3/0/physics_layer_3/angular_velocity = 0.0
2:3/0/physics_layer_4/linear_velocity = Vector2(0, 0)
2:3/0/physics_layer_4/angular_velocity = 0.0
2:3/0/terrains_peering_bit/right_side = 0
2:3/0/terrains_peering_bit/left_side = 0
3:3/0 = 0
3:3/0/terrain_set = 0
3:3/0/terrain = 0
3:3/0/physics_layer_0/linear_velocity = Vector2(0, 0)
3:3/0/physics_layer_0/angular_velocity = 0.0
3:3/0/physics_layer_0/polygon_0/points = PackedVector2Array(-4, -4, 4, -4, 4, 4, -4, 4)
3:3/0/physics_layer_1/linear_velocity = Vector2(0, 0)
3:3/0/physics_layer_1/angular_velocity = 0.0
3:3/0/physics_layer_2/linear_velocity = Vector2(0, 0)
3:3/0/physics_layer_2/angular_velocity = 0.0
3:3/0/physics_layer_2/polygon_0/points = PackedVector2Array(2, -4, 4, -4, 4, -2, 2, -2)
3:3/0/physics_layer_3/linear_velocity = Vector2(0, 0)
3:3/0/physics_layer_3/angular_velocity = 0.0
3:3/0/physics_layer_4/linear_velocity = Vector2(0, 0)
3:3/0/physics_layer_4/angular_velocity = 0.0
3:3/0/physics_layer_4/polygon_0/points = PackedVector2Array(2, 2, 4, 2, 4, 4, 2, 4)
3:3/0/terrains_peering_bit/left_side = 0
4:3/0 = 0
4:3/0/terrain_set = 0
4:3/0/terrain = 0
4:3/0/physics_layer_0/linear_velocity = Vector2(0, 0)
4:3/0/physics_layer_0/angular_velocity = 0.0
4:3/0/physics_layer_0/polygon_0/points = PackedVector2Array(-4, -4, 4, -4, 4, 4, -4, 4)
4:3/0/physics_layer_1/linear_velocity = Vector2(0, 0)
4:3/0/physics_layer_1/angular_velocity = 0.0
4:3/0/physics_layer_2/linear_velocity = Vector2(0, 0)
4:3/0/physics_layer_2/angular_velocity = 0.0
4:3/0/physics_layer_3/linear_velocity = Vector2(0, 0)
4:3/0/physics_layer_3/angular_velocity = 0.0
4:3/0/physics_layer_4/linear_velocity = Vector2(0, 0)
4:3/0/physics_layer_4/angular_velocity = 0.0
4:3/0/terrains_peering_bit/right_side = 0
4:3/0/terrains_peering_bit/bottom_side = 0
4:3/0/terrains_peering_bit/bottom_left_corner = 0
4:3/0/terrains_peering_bit/left_side = 0
4:3/0/terrains_peering_bit/top_side = 0
5:3/0 = 0
5:3/0/terrain_set = 0
5:3/0/terrain = 0
5:3/0/physics_layer_0/linear_velocity = Vector2(0, 0)
5:3/0/physics_layer_0/angular_velocity = 0.0
5:3/0/physics_layer_0/polygon_0/points = PackedVector2Array(-4, -4, 4, -4, 4, 4, -4, 4)
5:3/0/physics_layer_1/linear_velocity = Vector2(0, 0)
5:3/0/physics_layer_1/angular_velocity = 0.0
5:3/0/physics_layer_2/linear_velocity = Vector2(0, 0)
5:3/0/physics_layer_2/angular_velocity = 0.0
5:3/0/physics_layer_3/linear_velocity = Vector2(0, 0)
5:3/0/physics_layer_3/angular_velocity = 0.0
5:3/0/physics_layer_4/linear_velocity = Vector2(0, 0)
5:3/0/physics_layer_4/angular_velocity = 0.0
5:3/0/terrains_peering_bit/right_side = 0
5:3/0/terrains_peering_bit/left_side = 0
5:3/0/terrains_peering_bit/top_side = 0
5:3/0/terrains_peering_bit/top_right_corner = 0
6:3/0 = 0
6:3/0/terrain_set = 0
6:3/0/terrain = 0
6:3/0/physics_layer_0/linear_velocity = Vector2(0, 0)
6:3/0/physics_layer_0/angular_velocity = 0.0
6:3/0/physics_layer_0/polygon_0/points = PackedVector2Array(-4, -4, 4, -4, 4, 4, -4, 4)
6:3/0/physics_layer_1/linear_velocity = Vector2(0, 0)
6:3/0/physics_layer_1/angular_velocity = 0.0
6:3/0/physics_layer_2/linear_velocity = Vector2(0, 0)
6:3/0/physics_layer_2/angular_velocity = 0.0
6:3/0/physics_layer_3/linear_velocity = Vector2(0, 0)
6:3/0/physics_layer_3/angular_velocity = 0.0
6:3/0/physics_layer_4/linear_velocity = Vector2(0, 0)
6:3/0/physics_layer_4/angular_velocity = 0.0
6:3/0/terrains_peering_bit/right_side = 0
6:3/0/terrains_peering_bit/left_side = 0
6:3/0/terrains_peering_bit/top_left_corner = 0
6:3/0/terrains_peering_bit/top_side = 0
7:3/0 = 0
7:3/0/terrain_set = 0
7:3/0/terrain = 0
7:3/0/physics_layer_0/linear_velocity = Vector2(0, 0)
7:3/0/physics_layer_0/angular_velocity = 0.0
7:3/0/physics_layer_0/polygon_0/points = PackedVector2Array(-4, -4, 4, -4, 4, 4, -4, 4)
7:3/0/physics_layer_1/linear_velocity = Vector2(0, 0)
7:3/0/physics_layer_1/angular_velocity = 0.0
7:3/0/physics_layer_2/linear_velocity = Vector2(0, 0)
7:3/0/physics_layer_2/angular_velocity = 0.0
7:3/0/physics_layer_3/linear_velocity = Vector2(0, 0)
7:3/0/physics_layer_3/angular_velocity = 0.0
7:3/0/physics_layer_4/linear_velocity = Vector2(0, 0)
7:3/0/physics_layer_4/angular_velocity = 0.0
7:3/0/terrains_peering_bit/right_side = 0
7:3/0/terrains_peering_bit/bottom_right_corner = 0
7:3/0/terrains_peering_bit/bottom_side = 0
7:3/0/terrains_peering_bit/left_side = 0
7:3/0/terrains_peering_bit/top_side = 0
8:3/0 = 0
8:3/0/terrain_set = 0
8:3/0/terrain = 0
8:3/0/physics_layer_0/linear_velocity = Vector2(0, 0)
8:3/0/physics_layer_0/angular_velocity = 0.0
8:3/0/physics_layer_0/polygon_0/points = PackedVector2Array(-4, -4, 4, -4, 4, 4, -4, 4)
8:3/0/physics_layer_1/linear_velocity = Vector2(0, 0)
8:3/0/physics_layer_1/angular_velocity = 0.0
8:3/0/physics_layer_2/linear_velocity = Vector2(0, 0)
8:3/0/physics_layer_2/angular_velocity = 0.0
8:3/0/physics_layer_3/linear_velocity = Vector2(0, 0)
8:3/0/physics_layer_3/angular_velocity = 0.0
8:3/0/physics_layer_3/polygon_0/points = PackedVector2Array(-4, 2, -2, 2, -2, 4, -4, 4)
8:3/0/physics_layer_4/linear_velocity = Vector2(0, 0)
8:3/0/physics_layer_4/angular_velocity = 0.0
8:3/0/terrains_peering_bit/right_side = 0
8:3/0/terrains_peering_bit/top_side = 0
8:3/0/terrains_peering_bit/top_right_corner = 0
9:3/0 = 0
9:3/0/terrain_set = 0
9:3/0/terrain = 0
9:3/0/physics_layer_0/linear_velocity = Vector2(0, 0)
9:3/0/physics_layer_0/angular_velocity = 0.0
9:3/0/physics_layer_0/polygon_0/points = PackedVector2Array(-4, -4, 4, -4, 4, 4, -4, 4)
9:3/0/physics_layer_1/linear_velocity = Vector2(0, 0)
9:3/0/physics_layer_1/angular_velocity = 0.0
9:3/0/physics_layer_2/linear_velocity = Vector2(0, 0)
9:3/0/physics_layer_2/angular_velocity = 0.0
9:3/0/physics_layer_3/linear_velocity = Vector2(0, 0)
9:3/0/physics_layer_3/angular_velocity = 0.0
9:3/0/physics_layer_4/linear_velocity = Vector2(0, 0)
9:3/0/physics_layer_4/angular_velocity = 0.0
9:3/0/terrains_peering_bit/right_side = 0
9:3/0/terrains_peering_bit/left_side = 0
9:3/0/terrains_peering_bit/top_left_corner = 0
9:3/0/terrains_peering_bit/top_side = 0
9:3/0/terrains_peering_bit/top_right_corner = 0
10:3/0 = 0
10:3/0/terrain_set = 0
10:3/0/terrain = 0
10:3/0/physics_layer_0/linear_velocity = Vector2(0, 0)
10:3/0/physics_layer_0/angular_velocity = 0.0
10:3/0/physics_layer_0/polygon_0/points = PackedVector2Array(-4, -4, 4, -4, 4, 4, -4, 4)
10:3/0/physics_layer_1/linear_velocity = Vector2(0, 0)
10:3/0/physics_layer_1/angular_velocity = 0.0
10:3/0/physics_layer_2/linear_velocity = Vector2(0, 0)
10:3/0/physics_layer_2/angular_velocity = 0.0
10:3/0/physics_layer_3/linear_velocity = Vector2(0, 0)
10:3/0/physics_layer_3/angular_velocity = 0.0
10:3/0/physics_layer_4/linear_velocity = Vector2(0, 0)
10:3/0/physics_layer_4/angular_velocity = 0.0
10:3/0/terrains_peering_bit/right_side = 0
10:3/0/terrains_peering_bit/bottom_side = 0
10:3/0/terrains_peering_bit/left_side = 0
10:3/0/terrains_peering_bit/top_left_corner = 0
10:3/0/terrains_peering_bit/top_side = 0
10:3/0/terrains_peering_bit/top_right_corner = 0
11:3/0 = 0
11:3/0/terrain_set = 0
11:3/0/terrain = 0
11:3/0/physics_layer_0/linear_velocity = Vector2(0, 0)
11:3/0/physics_layer_0/angular_velocity = 0.0
11:3/0/physics_layer_0/polygon_0/points = PackedVector2Array(-4, -4, 4, -4, 4, 4, -4, 4)
11:3/0/physics_layer_1/linear_velocity = Vector2(0, 0)
11:3/0/physics_layer_1/angular_velocity = 0.0
11:3/0/physics_layer_2/linear_velocity = Vector2(0, 0)
11:3/0/physics_layer_2/angular_velocity = 0.0
11:3/0/physics_layer_3/linear_velocity = Vector2(0, 0)
11:3/0/physics_layer_3/angular_velocity = 0.0
11:3/0/physics_layer_4/linear_velocity = Vector2(0, 0)
11:3/0/physics_layer_4/angular_velocity = 0.0
11:3/0/physics_layer_4/polygon_0/points = PackedVector2Array(2, 2, 4, 2, 4, 4, 2, 4)
11:3/0/terrains_peering_bit/left_side = 0
11:3/0/terrains_peering_bit/top_left_corner = 0
11:3/0/terrains_peering_bit/top_side = 0
12:0/0 = 0
12:0/0/terrain_set = 0
12:0/0/terrain = 0
12:0/0/physics_layer_0/linear_velocity = Vector2(0, 0)
12:0/0/physics_layer_0/angular_velocity = 0.0
12:0/0/physics_layer_0/polygon_0/points = PackedVector2Array(-4, -4, 4, -4, 4, 4, -4, 4)
12:0/0/physics_layer_1/linear_velocity = Vector2(0, 0)
12:0/0/physics_layer_1/angular_velocity = 0.0
12:0/0/physics_layer_2/linear_velocity = Vector2(0, 0)
12:0/0/physics_layer_2/angular_velocity = 0.0
12:0/0/physics_layer_3/linear_velocity = Vector2(0, 0)
12:0/0/physics_layer_3/angular_velocity = 0.0
12:0/0/physics_layer_4/linear_velocity = Vector2(0, 0)
12:0/0/physics_layer_4/angular_velocity = 0.0
12:0/0/terrains_peering_bit/right_side = 0
12:0/0/terrains_peering_bit/bottom_right_corner = 0
12:0/0/terrains_peering_bit/bottom_side = 0
12:0/0/terrains_peering_bit/bottom_left_corner = 0
12:0/0/terrains_peering_bit/top_side = 0
12:0/0/terrains_peering_bit/top_right_corner = 0
12:1/0 = 0
12:1/0/terrain_set = 0
12:1/0/terrain = 0
12:1/0/physics_layer_0/linear_velocity = Vector2(0, 0)
12:1/0/physics_layer_0/angular_velocity = 0.0
12:1/0/physics_layer_0/polygon_0/points = PackedVector2Array(-4, -4, 4, -4, 4, 4, -4, 4)
12:1/0/physics_layer_1/linear_velocity = Vector2(0, 0)
12:1/0/physics_layer_1/angular_velocity = 0.0
12:1/0/physics_layer_2/linear_velocity = Vector2(0, 0)
12:1/0/physics_layer_2/angular_velocity = 0.0
12:1/0/physics_layer_3/linear_velocity = Vector2(0, 0)
12:1/0/physics_layer_3/angular_velocity = 0.0
12:1/0/physics_layer_4/linear_velocity = Vector2(0, 0)
12:1/0/physics_layer_4/angular_velocity = 0.0
12:1/0/terrains_peering_bit/bottom_right_corner = 0
12:1/0/terrains_peering_bit/bottom_side = 0
12:1/0/terrains_peering_bit/bottom_left_corner = 0
12:1/0/terrains_peering_bit/left_side = 0
12:1/0/terrains_peering_bit/top_left_corner = 0
12:1/0/terrains_peering_bit/top_side = 0
12:2/0 = 0
12:2/0/terrain_set = 0
12:2/0/terrain = 0
12:2/0/physics_layer_0/linear_velocity = Vector2(0, 0)
12:2/0/physics_layer_0/angular_velocity = 0.0
12:2/0/physics_layer_0/polygon_0/points = PackedVector2Array(-4, -4, 4, -4, 4, 4, -4, 4)
12:2/0/physics_layer_1/linear_velocity = Vector2(0, 0)
12:2/0/physics_layer_1/angular_velocity = 0.0
12:2/0/physics_layer_2/linear_velocity = Vector2(0, 0)
12:2/0/physics_layer_2/angular_velocity = 0.0
12:2/0/physics_layer_3/linear_velocity = Vector2(0, 0)
12:2/0/physics_layer_3/angular_velocity = 0.0
12:2/0/physics_layer_4/linear_velocity = Vector2(0, 0)
12:2/0/physics_layer_4/angular_velocity = 0.0
12:2/0/terrains_peering_bit/right_side = 0
12:2/0/terrains_peering_bit/bottom_right_corner = 0
12:2/0/terrains_peering_bit/bottom_side = 0
12:2/0/terrains_peering_bit/top_left_corner = 0
12:2/0/terrains_peering_bit/top_side = 0
12:2/0/terrains_peering_bit/top_right_corner = 0
12:3/0 = 0
12:3/0/terrain_set = 0
12:3/0/terrain = 0
12:3/0/physics_layer_0/linear_velocity = Vector2(0, 0)
12:3/0/physics_layer_0/angular_velocity = 0.0
12:3/0/physics_layer_0/polygon_0/points = PackedVector2Array(-4, -4, 4, -4, 4, 4, -4, 4)
12:3/0/physics_layer_1/linear_velocity = Vector2(0, 0)
12:3/0/physics_layer_1/angular_velocity = 0.0
12:3/0/physics_layer_2/linear_velocity = Vector2(0, 0)
12:3/0/physics_layer_2/angular_velocity = 0.0
12:3/0/physics_layer_3/linear_velocity = Vector2(0, 0)
12:3/0/physics_layer_3/angular_velocity = 0.0
12:3/0/physics_layer_4/linear_velocity = Vector2(0, 0)
12:3/0/physics_layer_4/angular_velocity = 0.0
12:3/0/terrains_peering_bit/bottom_side = 0
12:3/0/terrains_peering_bit/bottom_left_corner = 0
12:3/0/terrains_peering_bit/left_side = 0
12:3/0/terrains_peering_bit/top_left_corner = 0
12:3/0/terrains_peering_bit/top_side = 0
12:3/0/terrains_peering_bit/top_right_corner = 0
13:0/0 = 0
13:0/0/terrain_set = 0
13:0/0/terrain = 0
13:0/0/physics_layer_0/linear_velocity = Vector2(0, 0)
13:0/0/physics_layer_0/angular_velocity = 0.0
13:0/0/physics_layer_0/polygon_0/points = PackedVector2Array(-4, -4, 4, -4, 4, 4, -4, 4)
13:0/0/physics_layer_1/linear_velocity = Vector2(0, 0)
13:0/0/physics_layer_1/angular_velocity = 0.0
13:0/0/physics_layer_2/linear_velocity = Vector2(0, 0)
13:0/0/physics_layer_2/angular_velocity = 0.0
13:0/0/physics_layer_3/linear_velocity = Vector2(0, 0)
13:0/0/physics_layer_3/angular_velocity = 0.0
13:0/0/physics_layer_4/linear_velocity = Vector2(0, 0)
13:0/0/physics_layer_4/angular_velocity = 0.0
13:0/0/terrains_peering_bit/right_side = 0
13:0/0/terrains_peering_bit/bottom_right_corner = 0
13:0/0/terrains_peering_bit/bottom_side = 0
13:0/0/terrains_peering_bit/bottom_left_corner = 0
13:0/0/terrains_peering_bit/left_side = 0
13:0/0/terrains_peering_bit/top_right_corner = 0
13:1/0 = 0
13:1/0/terrain_set = 0
13:1/0/terrain = 0
13:1/0/physics_layer_0/linear_velocity = Vector2(0, 0)
13:1/0/physics_layer_0/angular_velocity = 0.0
13:1/0/physics_layer_0/polygon_0/points = PackedVector2Array(-4, -4, 4, -4, 4, 4, -4, 4)
13:1/0/physics_layer_1/linear_velocity = Vector2(0, 0)
13:1/0/physics_layer_1/angular_velocity = 0.0
13:1/0/physics_layer_2/linear_velocity = Vector2(0, 0)
13:1/0/physics_layer_2/angular_velocity = 0.0
13:1/0/physics_layer_3/linear_velocity = Vector2(0, 0)
13:1/0/physics_layer_3/angular_velocity = 0.0
13:1/0/physics_layer_4/linear_velocity = Vector2(0, 0)
13:1/0/physics_layer_4/angular_velocity = 0.0
13:1/0/terrains_peering_bit/right_side = 0
13:1/0/terrains_peering_bit/bottom_right_corner = 0
13:1/0/terrains_peering_bit/bottom_side = 0
13:1/0/terrains_peering_bit/bottom_left_corner = 0
13:1/0/terrains_peering_bit/left_side = 0
13:1/0/terrains_peering_bit/top_left_corner = 0
13:2/0 = 0
13:2/0/terrain_set = 0
13:2/0/terrain = 0
13:2/0/physics_layer_0/linear_velocity = Vector2(0, 0)
13:2/0/physics_layer_0/angular_velocity = 0.0
13:2/0/physics_layer_0/polygon_0/points = PackedVector2Array(-4, -4, 4, -4, 4, 4, -4, 4)
13:2/0/physics_layer_1/linear_velocity = Vector2(0, 0)
13:2/0/physics_layer_1/angular_velocity = 0.0
13:2/0/physics_layer_2/linear_velocity = Vector2(0, 0)
13:2/0/physics_layer_2/angular_velocity = 0.0
13:2/0/physics_layer_3/linear_velocity = Vector2(0, 0)
13:2/0/physics_layer_3/angular_velocity = 0.0
13:2/0/physics_layer_4/linear_velocity = Vector2(0, 0)
13:2/0/physics_layer_4/angular_velocity = 0.0
13:2/0/terrains_peering_bit/right_side = 0
13:2/0/terrains_peering_bit/bottom_right_corner = 0
13:2/0/terrains_peering_bit/left_side = 0
13:2/0/terrains_peering_bit/top_left_corner = 0
13:2/0/terrains_peering_bit/top_side = 0
13:2/0/terrains_peering_bit/top_right_corner = 0
13:3/0 = 0
13:3/0/terrain_set = 0
13:3/0/terrain = 0
13:3/0/physics_layer_0/linear_velocity = Vector2(0, 0)
13:3/0/physics_layer_0/angular_velocity = 0.0
13:3/0/physics_layer_0/polygon_0/points = PackedVector2Array(-4, -4, 4, -4, 4, 4, -4, 4)
13:3/0/physics_layer_1/linear_velocity = Vector2(0, 0)
13:3/0/physics_layer_1/angular_velocity = 0.0
13:3/0/physics_layer_2/linear_velocity = Vector2(0, 0)
13:3/0/physics_layer_2/angular_velocity = 0.0
13:3/0/physics_layer_3/linear_velocity = Vector2(0, 0)
13:3/0/physics_layer_3/angular_velocity = 0.0
13:3/0/physics_layer_4/linear_velocity = Vector2(0, 0)
13:3/0/physics_layer_4/angular_velocity = 0.0
13:3/0/terrains_peering_bit/right_side = 0
13:3/0/terrains_peering_bit/bottom_left_corner = 0
13:3/0/terrains_peering_bit/left_side = 0
13:3/0/terrains_peering_bit/top_left_corner = 0
13:3/0/terrains_peering_bit/top_side = 0
13:3/0/terrains_peering_bit/top_right_corner = 0

[sub_resource type="TileSetAtlasSource" id="TileSetAtlasSource_xwmtf"]
resource_name = "Corners"
texture = ExtResource("1_03aso")
texture_region_size = Vector2i(8, 8)
12:0/0 = 0
12:0/0/physics_layer_0/linear_velocity = Vector2(0, 0)
12:0/0/physics_layer_0/angular_velocity = 0.0
12:0/0/physics_layer_0/polygon_0/points = PackedVector2Array(-4, -4, 4, -4, 4, 4, -4, 4)
12:0/0/physics_layer_1/linear_velocity = Vector2(0, 0)
12:0/0/physics_layer_1/angular_velocity = 0.0
12:0/0/physics_layer_2/linear_velocity = Vector2(0, 0)
12:0/0/physics_layer_2/angular_velocity = 0.0
12:0/0/physics_layer_3/linear_velocity = Vector2(0, 0)
12:0/0/physics_layer_3/angular_velocity = 0.0
12:0/0/physics_layer_4/linear_velocity = Vector2(0, 0)
12:0/0/physics_layer_4/angular_velocity = 0.0
12:1/0 = 0
12:1/0/physics_layer_0/linear_velocity = Vector2(0, 0)
12:1/0/physics_layer_0/angular_velocity = 0.0
12:1/0/physics_layer_0/polygon_0/points = PackedVector2Array(-4, -4, 4, -4, 4, 4, -4, 4)
12:1/0/physics_layer_1/linear_velocity = Vector2(0, 0)
12:1/0/physics_layer_1/angular_velocity = 0.0
12:1/0/physics_layer_2/linear_velocity = Vector2(0, 0)
12:1/0/physics_layer_2/angular_velocity = 0.0
12:1/0/physics_layer_3/linear_velocity = Vector2(0, 0)
12:1/0/physics_layer_3/angular_velocity = 0.0
12:1/0/physics_layer_4/linear_velocity = Vector2(0, 0)
12:1/0/physics_layer_4/angular_velocity = 0.0
12:2/0 = 0
12:2/0/physics_layer_0/linear_velocity = Vector2(0, 0)
12:2/0/physics_layer_0/angular_velocity = 0.0
12:2/0/physics_layer_0/polygon_0/points = PackedVector2Array(-4, -4, 4, -4, 4, 4, -4, 4)
12:2/0/physics_layer_1/linear_velocity = Vector2(0, 0)
12:2/0/physics_layer_1/angular_velocity = 0.0
12:2/0/physics_layer_2/linear_velocity = Vector2(0, 0)
12:2/0/physics_layer_2/angular_velocity = 0.0
12:2/0/physics_layer_3/linear_velocity = Vector2(0, 0)
12:2/0/physics_layer_3/angular_velocity = 0.0
12:2/0/physics_layer_4/linear_velocity = Vector2(0, 0)
12:2/0/physics_layer_4/angular_velocity = 0.0
12:3/0 = 0
12:3/0/physics_layer_0/linear_velocity = Vector2(0, 0)
12:3/0/physics_layer_0/angular_velocity = 0.0
12:3/0/physics_layer_0/polygon_0/points = PackedVector2Array(-4, -4, 4, -4, 4, 4, -4, 4)
12:3/0/physics_layer_1/linear_velocity = Vector2(0, 0)
12:3/0/physics_layer_1/angular_velocity = 0.0
12:3/0/physics_layer_2/linear_velocity = Vector2(0, 0)
12:3/0/physics_layer_2/angular_velocity = 0.0
12:3/0/physics_layer_3/linear_velocity = Vector2(0, 0)
12:3/0/physics_layer_3/angular_velocity = 0.0
12:3/0/physics_layer_4/linear_velocity = Vector2(0, 0)
12:3/0/physics_layer_4/angular_velocity = 0.0
13:3/0 = 0
13:3/0/physics_layer_0/linear_velocity = Vector2(0, 0)
13:3/0/physics_layer_0/angular_velocity = 0.0
13:3/0/physics_layer_0/polygon_0/points = PackedVector2Array(-4, -4, 4, -4, 4, 4, -4, 4)
13:3/0/physics_layer_1/linear_velocity = Vector2(0, 0)
13:3/0/physics_layer_1/angular_velocity = 0.0
13:3/0/physics_layer_2/linear_velocity = Vector2(0, 0)
13:3/0/physics_layer_2/angular_velocity = 0.0
13:3/0/physics_layer_3/linear_velocity = Vector2(0, 0)
13:3/0/physics_layer_3/angular_velocity = 0.0
13:3/0/physics_layer_4/linear_velocity = Vector2(0, 0)
13:3/0/physics_layer_4/angular_velocity = 0.0
13:2/0 = 0
13:2/0/physics_layer_0/linear_velocity = Vector2(0, 0)
13:2/0/physics_layer_0/angular_velocity = 0.0
13:2/0/physics_layer_0/polygon_0/points = PackedVector2Array(-4, -4, 4, -4, 4, 4, -4, 4)
13:2/0/physics_layer_1/linear_velocity = Vector2(0, 0)
13:2/0/physics_layer_1/angular_velocity = 0.0
13:2/0/physics_layer_2/linear_velocity = Vector2(0, 0)
13:2/0/physics_layer_2/angular_velocity = 0.0
13:2/0/physics_layer_3/linear_velocity = Vector2(0, 0)
13:2/0/physics_layer_3/angular_velocity = 0.0
13:2/0/physics_layer_4/linear_velocity = Vector2(0, 0)
13:2/0/physics_layer_4/angular_velocity = 0.0
13:1/0 = 0
13:1/0/physics_layer_0/linear_velocity = Vector2(0, 0)
13:1/0/physics_layer_0/angular_velocity = 0.0
13:1/0/physics_layer_0/polygon_0/points = PackedVector2Array(-4, -4, 4, -4, 4, 4, -4, 4)
13:1/0/physics_layer_1/linear_velocity = Vector2(0, 0)
13:1/0/physics_layer_1/angular_velocity = 0.0
13:1/0/physics_layer_2/linear_velocity = Vector2(0, 0)
13:1/0/physics_layer_2/angular_velocity = 0.0
13:1/0/physics_layer_3/linear_velocity = Vector2(0, 0)
13:1/0/physics_layer_3/angular_velocity = 0.0
13:1/0/physics_layer_4/linear_velocity = Vector2(0, 0)
13:1/0/physics_layer_4/angular_velocity = 0.0
13:0/0 = 0
13:0/0/physics_layer_0/linear_velocity = Vector2(0, 0)
13:0/0/physics_layer_0/angular_velocity = 0.0
13:0/0/physics_layer_0/polygon_0/points = PackedVector2Array(-4, -4, 4, -4, 4, 4, -4, 4)
13:0/0/physics_layer_1/linear_velocity = Vector2(0, 0)
13:0/0/physics_layer_1/angular_velocity = 0.0
13:0/0/physics_layer_2/linear_velocity = Vector2(0, 0)
13:0/0/physics_layer_2/angular_velocity = 0.0
13:0/0/physics_layer_3/linear_velocity = Vector2(0, 0)
13:0/0/physics_layer_3/angular_velocity = 0.0
13:0/0/physics_layer_4/linear_velocity = Vector2(0, 0)
13:0/0/physics_layer_4/angular_velocity = 0.0
5:1/0 = 0
5:1/0/physics_layer_0/linear_velocity = Vector2(0, 0)
5:1/0/physics_layer_0/angular_velocity = 0.0
5:1/0/physics_layer_0/polygon_0/points = PackedVector2Array(-4, -4, 4, -4, 4, 4, -4, 4)
5:1/0/physics_layer_1/linear_velocity = Vector2(0, 0)
5:1/0/physics_layer_1/angular_velocity = 0.0
5:1/0/physics_layer_2/linear_velocity = Vector2(0, 0)
5:1/0/physics_layer_2/angular_velocity = 0.0
5:1/0/physics_layer_3/linear_velocity = Vector2(0, 0)
5:1/0/physics_layer_3/angular_velocity = 0.0
5:1/0/physics_layer_4/linear_velocity = Vector2(0, 0)
5:1/0/physics_layer_4/angular_velocity = 0.0
5:2/0 = 0
5:2/0/physics_layer_0/linear_velocity = Vector2(0, 0)
5:2/0/physics_layer_0/angular_velocity = 0.0
5:2/0/physics_layer_0/polygon_0/points = PackedVector2Array(-4, -4, 4, -4, 4, 4, -4, 4)
5:2/0/physics_layer_1/linear_velocity = Vector2(0, 0)
5:2/0/physics_layer_1/angular_velocity = 0.0
5:2/0/physics_layer_2/linear_velocity = Vector2(0, 0)
5:2/0/physics_layer_2/angular_velocity = 0.0
5:2/0/physics_layer_3/linear_velocity = Vector2(0, 0)
5:2/0/physics_layer_3/angular_velocity = 0.0
5:2/0/physics_layer_4/linear_velocity = Vector2(0, 0)
5:2/0/physics_layer_4/angular_velocity = 0.0
6:2/0 = 0
6:2/0/physics_layer_0/linear_velocity = Vector2(0, 0)
6:2/0/physics_layer_0/angular_velocity = 0.0
6:2/0/physics_layer_0/polygon_0/points = PackedVector2Array(-4, -4, 4, -4, 4, 4, -4, 4)
6:2/0/physics_layer_1/linear_velocity = Vector2(0, 0)
6:2/0/physics_layer_1/angular_velocity = 0.0
6:2/0/physics_layer_2/linear_velocity = Vector2(0, 0)
6:2/0/physics_layer_2/angular_velocity = 0.0
6:2/0/physics_layer_3/linear_velocity = Vector2(0, 0)
6:2/0/physics_layer_3/angular_velocity = 0.0
6:2/0/physics_layer_4/linear_velocity = Vector2(0, 0)
6:2/0/physics_layer_4/angular_velocity = 0.0
6:1/0 = 0
6:1/0/physics_layer_0/linear_velocity = Vector2(0, 0)
6:1/0/physics_layer_0/angular_velocity = 0.0
6:1/0/physics_layer_0/polygon_0/points = PackedVector2Array(-4, -4, 4, -4, 4, 4, -4, 4)
6:1/0/physics_layer_1/linear_velocity = Vector2(0, 0)
6:1/0/physics_layer_1/angular_velocity = 0.0
6:1/0/physics_layer_2/linear_velocity = Vector2(0, 0)
6:1/0/physics_layer_2/angular_velocity = 0.0
6:1/0/physics_layer_3/linear_velocity = Vector2(0, 0)
6:1/0/physics_layer_3/angular_velocity = 0.0
6:1/0/physics_layer_4/linear_velocity = Vector2(0, 0)
6:1/0/physics_layer_4/angular_velocity = 0.0
14:0/0 = 0
14:0/0/physics_layer_0/linear_velocity = Vector2(0, 0)
14:0/0/physics_layer_0/angular_velocity = 0.0
14:0/0/physics_layer_0/polygon_0/points = PackedVector2Array(-4, -4, 4, -4, 4, 4, -4, 4)
14:0/0/physics_layer_1/linear_velocity = Vector2(0, 0)
14:0/0/physics_layer_1/angular_velocity = 0.0
14:0/0/physics_layer_2/linear_velocity = Vector2(0, 0)
14:0/0/physics_layer_2/angular_velocity = 0.0
14:0/0/physics_layer_3/linear_velocity = Vector2(0, 0)
14:0/0/physics_layer_3/angular_velocity = 0.0
14:0/0/physics_layer_4/linear_velocity = Vector2(0, 0)
14:0/0/physics_layer_4/angular_velocity = 0.0
14:1/0 = 0
14:1/0/physics_layer_0/linear_velocity = Vector2(0, 0)
14:1/0/physics_layer_0/angular_velocity = 0.0
14:1/0/physics_layer_0/polygon_0/points = PackedVector2Array(-4, -4, 4, -4, 4, 4, -4, 4)
14:1/0/physics_layer_1/linear_velocity = Vector2(0, 0)
14:1/0/physics_layer_1/angular_velocity = 0.0
14:1/0/physics_layer_2/linear_velocity = Vector2(0, 0)
14:1/0/physics_layer_2/angular_velocity = 0.0
14:1/0/physics_layer_3/linear_velocity = Vector2(0, 0)
14:1/0/physics_layer_3/angular_velocity = 0.0
14:1/0/physics_layer_4/linear_velocity = Vector2(0, 0)
14:1/0/physics_layer_4/angular_velocity = 0.0
8:0/0 = 0
8:0/0/physics_layer_0/linear_velocity = Vector2(0, 0)
8:0/0/physics_layer_0/angular_velocity = 0.0
8:0/0/physics_layer_0/polygon_0/points = PackedVector2Array(-4, -4, 4, -4, 4, 4, -4, 4)
8:0/0/physics_layer_1/linear_velocity = Vector2(0, 0)
8:0/0/physics_layer_1/angular_velocity = 0.0
8:0/0/physics_layer_1/polygon_0/points = PackedVector2Array(-4, -4, -2, -4, -2, -2, -4, -2)
8:0/0/physics_layer_2/linear_velocity = Vector2(0, 0)
8:0/0/physics_layer_2/angular_velocity = 0.0
8:0/0/physics_layer_3/linear_velocity = Vector2(0, 0)
8:0/0/physics_layer_3/angular_velocity = 0.0
8:0/0/physics_layer_4/linear_velocity = Vector2(0, 0)
8:0/0/physics_layer_4/angular_velocity = 0.0
11:0/0 = 0
11:0/0/physics_layer_0/linear_velocity = Vector2(0, 0)
11:0/0/physics_layer_0/angular_velocity = 0.0
11:0/0/physics_layer_0/polygon_0/points = PackedVector2Array(-4, -4, 4, -4, 4, 4, -4, 4)
11:0/0/physics_layer_1/linear_velocity = Vector2(0, 0)
11:0/0/physics_layer_1/angular_velocity = 0.0
11:0/0/physics_layer_2/linear_velocity = Vector2(0, 0)
11:0/0/physics_layer_2/angular_velocity = 0.0
11:0/0/physics_layer_2/polygon_0/points = PackedVector2Array(2, -4, 4, -4, 4, -2, 2, -2)
11:0/0/physics_layer_3/linear_velocity = Vector2(0, 0)
11:0/0/physics_layer_3/angular_velocity = 0.0
11:0/0/physics_layer_4/linear_velocity = Vector2(0, 0)
11:0/0/physics_layer_4/angular_velocity = 0.0
11:3/0 = 0
11:3/0/physics_layer_0/linear_velocity = Vector2(0, 0)
11:3/0/physics_layer_0/angular_velocity = 0.0
11:3/0/physics_layer_0/polygon_0/points = PackedVector2Array(-4, -4, 4, -4, 4, 4, -4, 4)
11:3/0/physics_layer_1/linear_velocity = Vector2(0, 0)
11:3/0/physics_layer_1/angular_velocity = 0.0
11:3/0/physics_layer_2/linear_velocity = Vector2(0, 0)
11:3/0/physics_layer_2/angular_velocity = 0.0
11:3/0/physics_layer_3/linear_velocity = Vector2(0, 0)
11:3/0/physics_layer_3/angular_velocity = 0.0
11:3/0/physics_layer_4/linear_velocity = Vector2(0, 0)
11:3/0/physics_layer_4/angular_velocity = 0.0
11:3/0/physics_layer_4/polygon_0/points = PackedVector2Array(2, 2, 4, 2, 4, 4, 2, 4)
8:3/0 = 0
8:3/0/physics_layer_0/linear_velocity = Vector2(0, 0)
8:3/0/physics_layer_0/angular_velocity = 0.0
8:3/0/physics_layer_0/polygon_0/points = PackedVector2Array(-4, -4, 4, -4, 4, 4, -4, 4)
8:3/0/physics_layer_1/linear_velocity = Vector2(0, 0)
8:3/0/physics_layer_1/angular_velocity = 0.0
8:3/0/physics_layer_2/linear_velocity = Vector2(0, 0)
8:3/0/physics_layer_2/angular_velocity = 0.0
8:3/0/physics_layer_3/linear_velocity = Vector2(0, 0)
8:3/0/physics_layer_3/angular_velocity = 0.0
8:3/0/physics_layer_3/polygon_0/points = PackedVector2Array(-4, 2, -2, 2, -2, 4, -4, 4)
8:3/0/physics_layer_4/linear_velocity = Vector2(0, 0)
8:3/0/physics_layer_4/angular_velocity = 0.0

[resource]
tile_size = Vector2i(8, 8)
physics_layer_0/collision_layer = 128
physics_layer_0/collision_mask = 7
physics_layer_1/collision_layer = 256
physics_layer_1/collision_mask = 64
physics_layer_2/collision_layer = 512
physics_layer_2/collision_mask = 32
physics_layer_3/collision_layer = 1024
physics_layer_3/collision_mask = 16
physics_layer_4/collision_layer = 2048
physics_layer_4/collision_mask = 8
terrain_set_0/mode = 0
terrain_set_0/terrain_0/name = "Base"
terrain_set_0/terrain_0/color = Color(0.5, 0.34375, 0.25, 1)
sources/0 = SubResource("TileSetAtlasSource_a2thx")
sources/1 = SubResource("TileSetAtlasSource_xwmtf")
pattern_0 = SubResource("TileMapPattern_631xc")
pattern_1 = SubResource("TileMapPattern_bl0sf")
pattern_2 = SubResource("TileMapPattern_lyja0")
pattern_3 = SubResource("TileMapPattern_c2uia")
pattern_4 = SubResource("TileMapPattern_yev5t")
pattern_5 = SubResource("TileMapPattern_fbvwc")
pattern_6 = SubResource("TileMapPattern_rroej")
pattern_7 = SubResource("TileMapPattern_1wmil")
